<svg width="35" height="12" viewBox="0 0 35 12" fill="none" xmlns="http://www.w3.org/2000/svg">
<path d="M10 6C11.0646 6 27.1103 6 35 6" stroke="#941704" stroke-width="2"/>
<rect x="-0.00908953" y="1.3895" width="5.91528" height="5.91772" transform="matrix(0.714675 0.699457 -0.723765 0.690047 6.73355 0.937039)" stroke="#941704" stroke-width="2"/>
</svg>
