<svg width="16" height="16" viewBox="0 0 16 16" fill="none" xmlns="http://www.w3.org/2000/svg">
<path d="M12.1109 9.5863C11.6631 9.48996 11.3088 9.6979 10.9951 9.87943C10.6739 10.0666 10.0631 10.5621 9.71301 10.4352C7.92041 9.69716 6.23443 8.12816 5.5046 6.32841C5.37597 5.97082 5.86917 5.3561 6.0549 5.03108C6.23512 4.71645 6.43873 4.35885 6.34586 3.9077C6.26194 3.50228 5.17649 2.12109 4.79266 1.74339C4.53952 1.4939 4.2802 1.35669 4.01399 1.33451C3.01314 1.29154 1.89536 2.62699 1.69931 2.94648C1.20817 3.62772 1.21092 4.53418 1.70756 5.63332C2.90446 8.58556 7.43134 13.041 10.3947 14.2829C10.9415 14.5386 11.4416 14.6668 11.8907 14.6668C12.3303 14.6668 12.7217 14.5442 13.0581 14.3009C13.3119 14.1547 14.7021 12.9814 14.6656 11.9536C14.6436 11.6917 14.5067 11.4298 14.2605 11.1761C13.8856 10.7887 12.5133 9.67083 12.1109 9.5863Z" fill="#212121"/>
</svg>
