<svg width="24" height="24" viewBox="0 0 24 24" fill="none" xmlns="http://www.w3.org/2000/svg">
<g clip-path="url(#clip0)">
<path d="M17.5232 6.4769C17.2448 6.19846 16.8073 6.19846 16.5288 6.4769C16.2504 6.75534 16.2504 7.19278 16.5288 7.47126C16.8073 7.7497 17.2448 7.7497 17.5232 7.47126C17.8016 7.19282 17.8016 6.75534 17.5232 6.4769Z" fill="#971603"/>
<path d="M10.5626 9.45981C10.2842 9.18137 9.84673 9.18137 9.56829 9.45981C9.2899 9.7382 9.28986 10.1757 9.56829 10.4542C9.84673 10.7327 10.2843 10.7326 10.5626 10.4542C10.8411 10.1757 10.8411 9.73825 10.5626 9.45981Z" fill="#971603"/>
<path d="M11.557 16.4203C11.2786 16.1418 10.8411 16.1418 10.5627 16.4203C10.2843 16.6987 10.2842 17.1362 10.5627 17.4146C10.8411 17.6931 11.2786 17.693 11.557 17.4146C11.8355 17.1361 11.8355 16.6987 11.557 16.4203Z" fill="#971603"/>
<path d="M23.4795 10.0066L21.8885 3.64265C21.8487 3.50343 21.7991 3.37415 21.7394 3.25485L18.9253 6.06894C19.2932 6.85447 19.164 7.81897 18.5176 8.46532C17.6923 9.2906 16.3599 9.29065 15.5345 8.46532C14.7092 7.64 14.7092 6.30748 15.5345 5.4822C16.1808 4.83585 17.1453 4.70657 17.9309 5.07453L20.745 2.26045C20.6257 2.20073 20.4964 2.15109 20.3572 2.11129L13.9932 0.520355C13.2773 0.341386 12.5117 0.550167 11.9846 1.07718L0.618985 12.4428C-0.206295 13.2681 -0.206342 14.6005 0.618985 15.4259L8.57394 23.3809C9.39927 24.2062 10.7318 24.2062 11.5571 23.3809L22.9226 12.0152C23.4497 11.4881 23.6585 10.7225 23.4795 10.0066ZM8.57394 8.46532C9.39927 7.64 10.7317 7.64 11.5571 8.46532C12.3824 9.29065 12.3824 10.6231 11.5571 11.4484C10.7318 12.2737 9.39931 12.2738 8.57394 11.4484C7.74857 10.6231 7.74866 9.2906 8.57394 8.46532ZM12.5514 18.409C11.7261 19.2343 10.3936 19.2343 9.5683 18.409C8.74297 17.5837 8.74302 16.2512 9.5683 15.4259C10.3936 14.6005 11.726 14.6005 12.5514 15.4259C13.3767 16.2512 13.3767 17.5836 12.5514 18.409ZM15.115 13.6391L6.16569 14.6335C5.94477 14.6573 5.73646 14.5772 5.59035 14.431C5.4816 14.3223 5.4073 14.1771 5.38884 14.012C5.3466 13.6261 5.62433 13.2784 6.0103 13.2352L14.9596 12.2408C15.3451 12.2 15.6933 12.4763 15.7365 12.8623C15.7787 13.2483 15.501 13.5959 15.115 13.6391Z" fill="#971603"/>
<path d="M23.7911 0.208828C23.5127 -0.0696092 23.0752 -0.0696092 22.7968 0.208828L20.745 2.26064C21.1924 2.46946 21.5404 2.81746 21.7393 3.25499L23.7911 1.20319C24.0696 0.924748 24.0696 0.487265 23.7911 0.208828Z" fill="#971603"/>
</g>
<defs>
<clipPath id="clip0">
<rect width="24" height="24" fill="white"/>
</clipPath>
</defs>
</svg>
