<svg width="48" height="37" viewBox="0 0 48 37" fill="none" xmlns="http://www.w3.org/2000/svg">
<path d="M4.68738 18.1411C4.17075 18.1411 3.74805 18.5663 3.74805 19.086C3.74805 19.6056 4.17075 20.0308 4.68738 20.0308C5.20402 20.0308 5.62672 19.6056 5.62672 19.086C5.62672 18.5663 5.20402 18.1411 4.68738 18.1411Z" fill="#941704"/>
<path d="M43.0873 21.4103L34.2481 24.4716C34.2857 24.2543 34.3139 24.0275 34.3139 23.8008C34.3139 21.7221 32.6325 20.0309 30.5659 20.0309H24.4978C24.3382 20.0309 24.1785 19.9931 24.0376 19.908L19.0873 17.1019C18.1104 16.5444 16.9926 16.2515 15.8654 16.2515H9.21487C8.82975 15.1555 7.78708 14.3618 6.56595 14.3618H0.939335C0.422701 14.3618 0 14.787 0 15.3067V32.276C0 32.7957 0.422701 33.2209 0.939335 33.2209H6.56595C7.7589 33.2209 8.78278 32.465 9.18669 31.4068C10.2481 31.539 11.4787 31.8508 12.2489 32.3233L17.1523 35.2806C19.0121 36.405 21.135 36.9908 23.3049 36.9908C25.0239 36.9908 26.6865 36.6317 28.2458 35.9137L45.7456 28.166C47.6806 27.3723 48.6387 25.0385 47.5303 22.9788C46.7131 21.467 44.8063 20.7962 43.0873 21.4103ZM7.49589 30.4052C7.49589 30.9249 7.07319 31.3406 6.55656 31.3406H1.87867V16.2609H6.56595C7.08258 16.2609 7.50528 16.6861 7.50528 17.2058V30.4052H7.49589ZM45.0317 26.4369C45.0223 26.4369 45.0129 26.4463 45.0035 26.4463C45.0035 26.4463 27.4755 34.2035 27.4755 34.2129C26.1511 34.8176 24.7515 35.12 23.3049 35.12C21.4826 35.12 19.6885 34.6192 18.1198 33.6744L13.2164 30.717C12.1644 30.084 10.6614 29.6966 9.37456 29.5454V18.1412H15.856C16.6638 18.1412 17.4528 18.349 18.1573 18.7459L23.1076 21.5521C23.5303 21.7883 24.0094 21.9205 24.4885 21.9205H30.5566C31.5898 21.9205 32.4352 22.7709 32.4352 23.8102C32.4352 24.8496 31.5898 25.6999 30.5566 25.6999H21.0317C20.5151 25.6999 20.0924 26.1251 20.0924 26.6448C20.0924 27.1644 20.5151 27.5896 21.0317 27.5896H30.5659C31.1765 27.5896 31.7871 27.4384 32.3225 27.1455C32.3225 27.1455 43.7166 23.2055 43.726 23.2055C44.562 22.9032 45.5202 23.2055 45.8865 23.8953C46.4407 24.9251 45.9804 26.0495 45.0317 26.4369Z" fill="#941704"/>
<path d="M13.4886 16.6104C13.4604 16.9222 13.4322 17.2151 13.4229 17.508L17.1426 18.1411L22.1775 20.5977H26.0193L30.8193 21.3819C30.6127 21.2024 30.4436 20.9851 30.3027 20.7394C29.9739 20.163 29.8988 19.4828 30.0773 18.8403C30.1618 18.5474 30.2933 18.2734 30.4718 18.0277C30.7254 18.3584 31.0166 18.6513 31.336 18.9064C32.0123 19.445 32.8013 19.8135 33.6467 19.9646C33.4213 20.5693 33.3086 21.2024 33.318 21.8449C32.9234 21.9866 32.5101 22.0338 32.0874 21.9677L34.3324 23.7912L36.1454 24.4337C38.6252 22.8181 40.5039 20.4087 41.462 17.5836C41.6686 16.9789 41.8283 16.3553 41.9504 15.7223L41.988 15.5239L40.0906 13.3318L39.9966 14.3239C39.7054 17.5175 38.0804 20.3804 35.4972 22.27C35.3939 21.5142 35.5536 20.7488 35.9857 20.0969C36.2769 19.6528 36.2957 19.0859 36.0326 18.623C35.7696 18.16 35.2906 17.886 34.7551 17.9049C33.5716 17.9521 32.482 17.3285 31.8996 16.2986C31.3172 15.2688 31.3641 14.0027 32.0123 13.0106C32.3035 12.5665 32.3223 11.9996 32.0592 11.5366C32.0123 11.4611 31.9559 11.376 31.8902 11.3004L31.6553 11.0359L31.6178 11.0548C31.3641 10.8753 31.0636 10.7808 30.7348 10.7902C29.5512 10.8469 28.4522 10.2422 27.8604 9.21233C27.2686 8.18246 27.2968 6.92582 27.9356 5.92428C28.2174 5.48021 28.2362 4.9133 27.9731 4.45033C27.7101 3.98736 27.2123 3.7228 26.6863 3.7417C25.9066 3.77949 25.1645 3.53383 24.5728 3.05196C26.7144 2.11657 29.1097 1.88036 31.3735 2.40002C33.844 2.95748 36.0702 4.38419 37.6483 6.4156C38.0804 6.97306 38.8788 7.13368 39.4894 6.77464C41.0299 5.87704 42.1477 4.43143 42.6174 2.70237C42.6643 2.52285 42.871 2.39058 43.0213 2.43782C43.1904 2.48506 43.2937 2.66458 43.2467 2.83465C42.7395 4.75268 41.5184 6.34946 39.8088 7.34155C39.1888 7.70059 38.9258 8.46591 39.1888 9.1273C39.5551 10.0532 39.8088 11.017 39.9215 12.0091C39.9872 12.6043 40.5227 13.0295 41.1144 12.9634C41.7062 12.8972 42.1289 12.3587 42.0632 11.7634C41.9504 10.7902 41.7344 9.82648 41.4056 8.90053C43.3219 7.6061 44.7027 5.66918 45.3039 3.40156C45.6514 2.07878 44.8718 0.718206 43.5661 0.359166C42.251 0.000126199 40.889 0.803242 40.5227 2.14492C40.2596 3.1181 39.6866 3.96846 38.8976 4.58261C37.0095 2.38113 34.4264 0.859932 31.5896 0.27413C28.4992 -0.368362 25.2679 0.132404 22.5062 1.6725C22.2056 1.84257 21.9802 2.13547 21.8957 2.47561C21.8581 2.62679 21.8487 2.78741 21.8675 2.94803C21.689 3.04252 21.5199 3.137 21.3508 3.24093C20.9563 3.46769 20.5618 3.73225 20.1861 4.00626C19.707 4.35585 19.6037 5.03613 19.9512 5.518C20.1203 5.75421 20.3739 5.90539 20.6557 5.95263C20.7309 5.96208 20.806 5.97153 20.8812 5.96208C20.6933 6.71795 20.6933 7.50217 20.8906 8.26749C20.3082 8.36197 19.707 8.23915 19.2092 7.9179C19.2655 7.84231 19.3219 7.77617 19.3876 7.71003C19.7728 7.25651 19.7164 6.57622 19.2655 6.18884C19.0495 5.99987 18.7677 5.91483 18.4859 5.93373C18.2041 5.96208 17.9411 6.09436 17.7532 6.31167C16.7011 7.55886 15.8088 9.02336 15.0949 10.6485C14.907 11.0831 14.8319 11.5744 14.8976 12.0469C14.5501 12.3776 14.2964 12.7838 14.1649 13.2563C13.8456 14.3806 13.6201 15.505 13.5074 16.6104H13.4886ZM27.062 11.6406C27.588 12.1035 28.208 12.4626 28.8749 12.6893L28.7246 12.7744H28.7434L28.7246 12.7838L29.6358 12.9067C29.307 13.8137 29.2319 14.7869 29.4103 15.7317C28.3771 15.9302 27.325 15.4483 26.7896 14.5034L26.6111 14.1728C26.2823 13.3224 26.4514 12.3398 27.062 11.6406ZM28.114 17.8671C28.0671 17.9994 28.0201 18.1316 27.9825 18.2639C27.7665 19.0481 27.7571 19.8512 27.945 20.626C27.6068 20.6733 27.2686 20.6544 26.9305 20.5599C26.2917 20.3804 25.7657 19.9646 25.4369 19.3883C25.1082 18.8119 25.033 18.1316 25.2115 17.4891C25.3054 17.1585 25.4651 16.8467 25.6718 16.5821C26.3387 17.2435 27.1935 17.697 28.114 17.8671ZM23.0041 6.35891C23.1544 5.88649 23.4174 5.47076 23.7931 5.16841C24.3379 5.4991 24.9485 5.72587 25.5684 5.83925C25.2773 6.65181 25.1833 7.52107 25.3054 8.38087C25.3618 8.7966 25.4651 9.19344 25.6154 9.58082C25.3148 9.60917 25.0142 9.59027 24.723 9.50523C24.0843 9.33516 23.5489 8.91943 23.2201 8.34308C22.8726 7.72893 22.7974 7.02975 23.0041 6.35891ZM21.6702 11.3288C21.7641 10.9886 21.9144 10.6863 22.1211 10.4217C22.6847 10.9792 23.3798 11.3855 24.1594 11.5933C24.291 11.6311 24.4319 11.6595 24.5634 11.6878C24.244 12.576 24.1876 13.5397 24.4225 14.4468C24.0843 14.494 23.7461 14.4751 23.408 14.3901C22.7692 14.22 22.2338 13.8043 21.905 13.2279C21.5951 12.6421 21.5011 11.9713 21.6702 11.3288ZM20.8342 15.3066C21.3978 15.864 22.0929 16.2609 22.8726 16.4782C22.9947 16.516 23.1262 16.5443 23.2577 16.5632C23.2201 16.6766 23.1825 16.7994 23.145 16.9128C22.9289 17.697 22.9195 18.5001 23.1074 19.2749C22.1587 19.4072 21.1911 18.982 20.6651 18.1411L20.5148 17.9049C20.1297 17.0451 20.2518 16.0341 20.8342 15.3066ZM17.0487 11.5083C17.3305 10.8753 17.6405 10.2611 17.9786 9.68475C18.5047 10.0343 19.0964 10.2706 19.7164 10.3745C19.6694 10.5068 19.6319 10.639 19.5943 10.7713C19.3876 11.5555 19.3782 12.3681 19.5755 13.1334C19.2373 13.1807 18.8992 13.1618 18.561 13.0767C17.9223 12.9067 17.3868 12.4909 17.0487 11.9051C17.0017 11.7917 16.9923 11.6406 17.0487 11.5083ZM16.1281 14.1444C16.6636 14.6263 17.3023 14.9759 18.0162 15.1648C18.1477 15.2026 18.2886 15.231 18.4201 15.2593C18.1007 16.1475 18.0444 17.1112 18.2792 18.0183C17.2835 18.1694 16.2784 17.697 15.7618 16.7994C15.7242 16.7333 15.6866 16.6577 15.6491 16.5821C15.7524 15.779 15.9121 14.957 16.1281 14.1444Z" fill="#941704"/>
</svg>
