<svg width="16" height="16" viewBox="0 0 16 16" fill="none" xmlns="http://www.w3.org/2000/svg">
<path fill-rule="evenodd" clip-rule="evenodd" d="M13.3333 2C13.7015 2 14 2.29848 14 2.66667L14 6.66667C14 7.03486 13.7015 7.33333 13.3333 7.33333L2.66667 7.33333C2.29848 7.33333 2 7.03486 2 6.66667L2 2.66667C2 2.29848 2.29848 2 2.66667 2L13.3333 2ZM12.6667 3.33333L3.33333 3.33333L3.33333 6L12.6667 6L12.6667 3.33333Z" fill="#C4C4C4"/>
<path fill-rule="evenodd" clip-rule="evenodd" d="M13.3333 8.6665C13.7015 8.6665 14 8.96498 14 9.33317L14 13.3332C14 13.7014 13.7015 13.9998 13.3333 13.9998L2.66667 13.9998C2.29848 13.9998 2 13.7014 2 13.3332L2 9.33317C2 8.96498 2.29848 8.6665 2.66667 8.6665L13.3333 8.6665ZM12.6667 9.99984L3.33333 9.99984L3.33333 12.6665L12.6667 12.6665L12.6667 9.99984Z" fill="#C4C4C4"/>
</svg>
