<svg width="16" height="16" viewBox="0 0 16 16" fill="none" xmlns="http://www.w3.org/2000/svg">
<path fill-rule="evenodd" clip-rule="evenodd" d="M2 2.66667C2 2.29848 2.29848 2 2.66667 2L6.66667 2C7.03486 2 7.33333 2.29848 7.33333 2.66667L7.33333 13.3333C7.33333 13.7015 7.03486 14 6.66667 14H2.66667C2.29848 14 2 13.7015 2 13.3333L2 2.66667ZM3.33333 3.33333L3.33333 12.6667H6L6 3.33333L3.33333 3.33333Z" fill="#212121"/>
<path fill-rule="evenodd" clip-rule="evenodd" d="M8.66699 2.66667C8.66699 2.29848 8.96547 2 9.33366 2L13.3337 2C13.7018 2 14.0003 2.29848 14.0003 2.66667L14.0003 13.3333C14.0003 13.7015 13.7018 14 13.3337 14H9.33366C8.96547 14 8.66699 13.7015 8.66699 13.3333L8.66699 2.66667ZM10.0003 3.33333L10.0003 12.6667H12.667L12.667 3.33333L10.0003 3.33333Z" fill="#212121"/>
</svg>
