<svg width="32" height="32" viewBox="0 0 32 32" fill="none" xmlns="http://www.w3.org/2000/svg">
<path fill-rule="evenodd" clip-rule="evenodd" d="M16.0003 2.66667C13.1714 2.66667 10.4582 3.79047 8.45785 5.79086C6.45746 7.79125 5.33366 10.5044 5.33366 13.3333C5.33366 17.4641 8.02131 21.4723 10.9683 24.583C12.4145 26.1096 13.8652 27.3593 14.9559 28.2278C15.3618 28.551 15.7164 28.8203 16.0003 29.0301C16.2843 28.8203 16.6388 28.551 17.0448 28.2278C18.1354 27.3593 19.5862 26.1096 21.0324 24.583C23.9793 21.4723 26.667 17.4641 26.667 13.3333C26.667 10.5044 25.5432 7.79125 23.5428 5.79086C21.5424 3.79047 18.8293 2.66667 16.0003 2.66667ZM16.0003 30.6667C15.2607 31.7761 15.2604 31.7758 15.26 31.7756L15.2562 31.773L15.2473 31.7671L15.2168 31.7464C15.1908 31.7288 15.1538 31.7035 15.1064 31.6707C15.0117 31.6051 14.8756 31.5095 14.704 31.3856C14.3611 31.1379 13.8755 30.7763 13.2948 30.3139C12.1354 29.3907 10.5862 28.0571 9.03239 26.417C5.97934 23.1943 2.66699 18.5359 2.66699 13.3333C2.66699 9.79711 4.07175 6.40573 6.57223 3.90524C9.07272 1.40476 12.4641 0 16.0003 0C19.5365 0 22.9279 1.40476 25.4284 3.90524C27.9289 6.40573 29.3337 9.79711 29.3337 13.3333C29.3337 18.5359 26.0213 23.1943 22.9683 26.417C21.4145 28.0571 19.8652 29.3907 18.7059 30.3139C18.1252 30.7763 17.6396 31.1379 17.2966 31.3856C17.125 31.5095 16.989 31.6051 16.8942 31.6707C16.8469 31.7035 16.8099 31.7288 16.7839 31.7464L16.7533 31.7671L16.7445 31.773L16.7416 31.7749C16.7413 31.7752 16.7399 31.7761 16.0003 30.6667ZM16.0003 30.6667L16.7399 31.7761C16.2921 32.0746 15.7079 32.0742 15.26 31.7756L16.0003 30.6667Z" fill="#971603"/>
<path fill-rule="evenodd" clip-rule="evenodd" d="M16.0003 10.6667C14.5276 10.6667 13.3337 11.8606 13.3337 13.3333C13.3337 14.8061 14.5276 16 16.0003 16C17.4731 16 18.667 14.8061 18.667 13.3333C18.667 11.8606 17.4731 10.6667 16.0003 10.6667ZM10.667 13.3333C10.667 10.3878 13.0548 8 16.0003 8C18.9458 8 21.3337 10.3878 21.3337 13.3333C21.3337 16.2789 18.9458 18.6667 16.0003 18.6667C13.0548 18.6667 10.667 16.2789 10.667 13.3333Z" fill="#971603"/>
</svg>
