<svg width="40" height="54" viewBox="0 0 40 54" fill="none" xmlns="http://www.w3.org/2000/svg">
<g clip-path="url(#clip0)">
<path d="M17.9446 52.9105C2.80938 30.6947 0 28.4147 0 20.25C0 9.0662 8.95427 0 20 0C31.0457 0 40 9.0662 40 20.25C40 28.4147 37.1906 30.6947 22.0554 52.9105C21.0622 54.3632 18.9377 54.3631 17.9446 52.9105Z" fill="#971603"/>
<path fill-rule="evenodd" clip-rule="evenodd" d="M21.6877 5.6113C21.0743 5.86916 20.6283 6.29041 20.4061 6.82192C20.3523 6.95048 20.3108 7.26446 20.3116 7.53613C20.3154 8.78348 21.2538 9.61728 22.2613 9.26847C23.1325 8.96687 23.237 8.09077 22.4511 7.67843C22.1776 7.53498 22.1601 7.55184 22.3161 7.80794C22.4881 8.09022 22.4931 8.27163 22.3331 8.41856C21.9973 8.72682 21.4946 8.4174 21.4947 7.90249C21.4947 7.25711 21.9349 6.76104 22.5536 6.70901C22.994 6.67194 23.3333 6.78036 23.6448 7.05781C24.4587 7.78284 24.0785 9.19249 22.7999 10.1907C21.883 10.9064 20.7622 11.3771 19.8325 11.4367C19.2888 11.4716 19.2335 11.4623 18.9033 11.28C18.3765 10.9892 18.2426 10.8112 17.0195 8.77661C16.2159 7.43988 15.4491 6.85253 14.4357 6.79757C13.1836 6.72968 11.945 7.41873 11.4747 8.44488C11.2195 9.00149 11.1849 9.79474 11.3942 10.2883C11.5659 10.6931 11.9466 11.0698 12.3902 11.2737C12.8033 11.4636 13.4727 11.4718 13.8309 11.2915C14.4686 10.9704 14.7611 9.97581 14.3428 9.55143C14.1503 9.35615 13.9055 9.31812 13.4807 9.4175L13.1024 9.50606L13.3672 9.56449C13.694 9.63666 13.8734 9.79352 13.8734 10.0072C13.8734 10.2189 13.5897 10.5037 13.3787 10.5037C13.01 10.5037 12.5314 9.86004 12.5335 9.3671C12.5359 8.80709 13.1023 8.20885 13.6941 8.14117C14.2224 8.08077 14.4617 8.16668 14.841 8.55296C15.3112 9.03176 15.4501 9.46607 15.4433 10.4357C15.4369 11.3376 15.259 12.0582 14.8107 12.9969C14.3819 13.8946 13.9846 14.3245 13.4334 14.487C12.9195 14.6386 12.5033 14.5956 11.0812 14.2438C9.26281 13.7939 8.4493 13.7633 7.72296 14.1174C7.07057 14.4355 6.48242 15.1836 6.18204 16.0774C5.65805 17.6367 6.66546 19.3264 8.10722 19.3063C8.83932 19.296 9.47072 18.9369 9.7477 18.373C9.8411 18.1828 9.91734 17.9338 9.91714 17.8196C9.916 17.1874 9.47093 16.5575 9.02539 16.5575C8.73681 16.5575 8.4265 16.8014 8.2379 17.1766L8.10621 17.4384L8.35074 17.27C8.65373 17.0614 8.87245 17.0557 9.00856 17.2529C9.1558 17.4661 9.13836 17.6763 8.95552 17.8919C8.82008 18.0517 8.75042 18.0765 8.45688 18.0697C7.34467 18.044 6.87707 16.8043 7.64552 15.9187C7.96474 15.5507 8.25928 15.4396 8.78656 15.4881C9.3078 15.536 9.71083 15.745 10.2272 16.2351C10.753 16.734 11.0399 17.1249 11.3923 17.8223C11.9183 18.8633 12.1135 19.8989 11.8938 20.4825C11.6611 21.1008 11.3102 21.3903 9.22358 22.6852C8.40512 23.1931 7.89212 23.7063 7.62178 24.2875C7.42774 24.7048 7.40481 24.8185 7.40408 25.3661C7.40314 26.0423 7.49868 26.4693 7.77707 27.0326C7.95636 27.3955 8.43589 27.9222 8.77771 28.1317C9.42573 28.5288 10.3637 28.5812 10.9933 28.2554C11.6729 27.9037 12.154 26.806 11.9301 26.1179C11.6938 25.3914 10.8228 24.9311 10.2514 25.2308C9.91439 25.4076 9.83386 25.75 9.99578 26.3184L10.0733 26.5905L10.1312 26.3218C10.2597 25.7264 10.7162 25.6257 10.9831 26.1339C11.22 26.585 10.5076 27.2174 9.83601 27.1518C9.30599 27.1002 8.79159 26.5733 8.67948 25.9671C8.58058 25.4322 8.97168 24.7958 9.59664 24.4744C10.7954 23.8582 13.2841 24.3933 14.4913 25.5268C15.1997 26.1919 15.2364 26.7437 14.7135 28.8692C14.4521 29.9322 14.4035 30.2332 14.4007 30.8077C14.3961 31.7556 14.5472 32.1515 15.1413 32.7479C15.9223 33.5321 16.8488 33.8716 17.7707 33.7112C19.318 33.442 20.1114 32.1478 19.532 30.8381C19.0699 29.7932 17.9939 29.5025 17.2777 30.229C16.8355 30.6775 16.9557 31.1767 17.5836 31.4995L17.9204 31.6727L17.7373 31.4517C17.5 31.1657 17.5155 30.8568 17.7745 30.7101C18.0322 30.564 18.3003 30.6743 18.4521 30.9888C18.6165 31.3296 18.5069 31.7774 18.1715 32.1347C17.373 32.9854 15.9296 32.3253 15.9296 31.1095C15.9296 29.8366 17.6087 28.3242 19.5769 27.8246C20.5375 27.5806 21.1806 27.7525 21.7416 28.4031C21.9019 28.589 22.3318 29.2487 22.6969 29.8691C23.7873 31.7216 24.4678 32.3208 25.5587 32.3892C26.8385 32.4694 28.0595 31.7874 28.5392 30.7243C28.7683 30.2165 28.8198 29.5004 28.6619 29.0178C28.3313 28.0082 26.9708 27.4354 26.1136 27.945C25.4998 28.31 25.2682 29.2852 25.7047 29.6661C25.9125 29.8475 26.3864 29.8737 26.7133 29.7219L26.9144 29.6284L26.7056 29.6229C26.4327 29.6157 26.1434 29.3828 26.1434 29.1703C26.1434 28.7404 26.7215 28.5677 27.0742 28.8922C27.2837 29.0851 27.4811 29.5267 27.4829 29.8072C27.4872 30.4574 26.819 31.0653 26.1001 31.0653C25.4675 31.0653 25.0015 30.6637 24.6962 29.8554C24.4966 29.327 24.5284 28.1462 24.7641 27.3387C25.1079 26.1607 25.6637 25.1931 26.1917 24.8534C26.8701 24.417 27.3841 24.4318 29.2947 24.9431C30.2116 25.1885 30.4248 25.2218 31.1059 25.2257C31.847 25.2299 31.8958 25.2211 32.3252 25.0069C33.3843 24.4785 34.1154 23.0542 33.9292 21.8816C33.6804 20.3139 32.3382 19.4706 31.0715 20.0861C30.6139 20.3083 30.3541 20.5597 30.2034 20.9256C30.0032 21.4118 30.1194 22.015 30.4845 22.3853C30.6672 22.5707 30.7586 22.6113 30.9935 22.6113C31.2294 22.6113 31.3163 22.5724 31.4866 22.3902C31.6004 22.2687 31.7459 22.0637 31.81 21.9348L31.9266 21.7004L31.7118 21.8838C31.3252 22.2138 30.9039 22.0789 30.9039 21.6251C30.9039 20.9575 32.0583 20.9431 32.5228 21.6049C32.7592 21.9416 32.7761 22.612 32.5587 23.0194C32.0832 23.9101 30.9347 23.9516 29.9276 23.1144C29.2753 22.5722 28.554 21.4302 28.2136 20.4006C28.0949 20.0417 28.0559 19.7725 28.0552 19.3073C28.0543 18.738 28.07 18.6642 28.2575 18.3562C28.5281 17.9119 29.007 17.5332 30.2435 16.7856C30.8415 16.4241 31.4612 15.9879 31.7229 15.7444C32.5222 15.0007 32.78 14.1758 32.5533 13.0885C32.2634 11.6979 31.3698 10.8216 30.1461 10.7278C29.2626 10.66 28.6564 10.9919 28.2755 11.7522C27.7271 12.8466 28.2128 13.9487 29.2776 14.0261C29.5969 14.0492 29.6948 14.0289 29.8454 13.9084C30.0774 13.7226 30.1381 13.3978 30.0267 12.9373L29.9398 12.5783L29.8819 12.8653C29.8159 13.1924 29.5692 13.4353 29.3593 13.3796C29.2851 13.3599 29.1624 13.2639 29.0867 13.1662C28.821 12.8235 29.0984 12.3175 29.6742 12.0944C30.2045 11.8889 30.7649 12.1133 31.1131 12.6703C31.4962 13.2832 31.3225 14.1155 30.7237 14.5359C30.2391 14.8761 29.933 14.9521 29.06 14.9488C28.0653 14.945 27.4651 14.796 26.4989 14.3128C24.9042 13.5154 24.7276 12.9328 25.345 10.5037C25.6063 9.47539 25.6306 9.30717 25.6354 8.4959C25.6404 7.62728 25.6363 7.60177 25.4199 7.15542C25.148 6.59494 24.6557 6.13022 23.947 5.76495C23.4655 5.51682 23.4068 5.50342 22.7305 5.48798C22.1416 5.47444 21.9629 5.49559 21.6877 5.6113ZM21.4225 13.6342C24.4054 14.4081 26.3385 17.1953 26.0077 20.2453C25.7365 22.7451 24.0494 24.7657 21.6134 25.5079C21.0834 25.6694 20.9018 25.6906 20.0419 25.6913C19.2546 25.6921 18.9677 25.6643 18.5333 25.5455C16.7484 25.0572 15.3353 23.8706 14.5473 22.1983C13.1348 19.201 14.3658 15.6105 17.3264 14.0916C17.7765 13.8608 18.7022 13.5735 19.2373 13.4987C19.8264 13.4163 20.8204 13.478 21.4225 13.6342ZM19.7402 13.9009C19.4339 14.0474 18.5139 14.7644 18.4067 14.9401C18.32 15.0821 18.4166 15.2067 18.6071 15.1987C18.6771 15.1958 19.3627 15.1866 20.1304 15.1783C21.3708 15.1648 21.5336 15.1501 21.5909 15.0462C21.6385 14.96 21.6223 14.8976 21.5289 14.8082C21.4199 14.7035 20.7209 14.1653 20.3868 13.9287C20.1775 13.7804 20.0075 13.7731 19.7402 13.9009ZM17.36 15.1701C17.1571 15.2151 16.862 15.255 16.7041 15.2586C16.347 15.2668 15.9852 15.4151 15.8921 15.5916C15.7945 15.7766 15.5858 17.33 15.6395 17.4719C15.7235 17.694 15.9601 17.542 16.4749 16.9354C16.7589 16.6008 17.2099 16.1471 17.4773 15.9272C17.8353 15.6326 17.9634 15.4844 17.9634 15.3646C17.9634 15.132 17.7872 15.0752 17.36 15.1701ZM22.0311 15.1745C21.9029 15.3044 22.0431 15.5075 22.5944 15.9906C22.9289 16.2837 23.3835 16.7454 23.6048 17.0166C23.9438 17.4321 24.0394 17.5098 24.2119 17.5098H24.4167L24.3776 17.1527C24.2776 16.2403 24.2102 15.7655 24.165 15.6537C24.0834 15.4527 23.7761 15.3395 23.0182 15.2316C22.2096 15.1164 22.0948 15.1098 22.0311 15.1745ZM18.1312 15.7024C17.8828 15.9695 17.5375 16.7831 17.5948 16.9662C17.687 17.2609 17.7954 17.257 18.3767 16.9382C18.6841 16.7697 19.1219 16.5877 19.3495 16.5338C19.8633 16.4124 19.9078 16.3845 19.9078 16.1843C19.9078 15.9642 19.6417 15.7684 19.1205 15.6051C18.5162 15.4157 18.3858 15.4285 18.1312 15.7024ZM20.7795 15.6437C20.5029 15.7377 20.2224 15.8799 20.1561 15.9595C19.9954 16.1527 20.035 16.3651 20.2431 16.4255C20.9859 16.6416 21.3782 16.7978 21.6964 17.0043C22.048 17.2325 22.0747 17.2392 22.2276 17.1375C22.4472 16.9915 22.4351 16.7416 22.1836 16.231C21.9587 15.7743 21.6544 15.4682 21.428 15.471C21.3479 15.4719 21.056 15.5497 20.7795 15.6437ZM19.0396 17.3408C18.5805 17.5394 18.1715 17.7483 18.1307 17.8049C18.0899 17.8615 17.8994 18.3004 17.7075 18.7801L17.3584 19.6524L17.7481 20.6012L18.1378 21.5501L19.0731 21.9454L20.0084 22.3408L20.9609 21.9489L21.9134 21.557L22.2853 20.6387C22.4898 20.1337 22.657 19.6807 22.657 19.6319C22.6568 19.5561 22.4101 18.9248 22.0085 17.9731C21.9093 17.738 21.8464 17.6987 20.9978 17.344C20.5001 17.1359 20.0437 16.9688 19.9836 16.9726C19.9235 16.9765 19.4987 17.1421 19.0396 17.3408ZM16.7211 17.3302C16.1722 17.5986 16.0141 17.7575 15.9855 18.0693C15.9615 18.3314 16.2316 19.1713 16.401 19.3612C16.468 19.4363 16.5831 19.4805 16.6808 19.4686C16.8536 19.4475 16.8563 19.4423 17.0506 18.7342C17.1071 18.5284 17.2762 18.1534 17.4265 17.9008C17.7104 17.4237 17.7175 17.2451 17.4569 17.1437C17.2785 17.0743 17.2082 17.092 16.7211 17.3302ZM22.4389 17.1742C22.2667 17.2774 22.294 17.4525 22.5515 17.896C22.7634 18.2609 22.8858 18.5914 23.0383 19.2103C23.0832 19.3927 23.1356 19.453 23.2625 19.4682C23.5173 19.4988 23.653 19.3514 23.8328 18.8491C24.1361 18.0014 24.0384 17.7307 23.2938 17.3555C22.8741 17.1438 22.5903 17.0837 22.4389 17.1742ZM24.3664 18.0299C24.2882 18.1092 24.2708 18.1929 24.3063 18.3188C24.3338 18.4163 24.3586 19.0896 24.3614 19.8151C24.3662 21.0224 24.377 21.1404 24.4906 21.2095C24.6269 21.2924 24.6088 21.3107 25.2701 20.4182C25.8547 19.6292 25.85 19.5664 25.1375 18.6123C24.6517 17.9618 24.5266 17.8673 24.3664 18.0299ZM15.1075 18.2709C15.008 18.4321 14.8113 18.7049 14.6704 18.877C14.3595 19.2568 14.2688 19.4803 14.3308 19.7151C14.3972 19.9674 15.2864 21.1753 15.4426 21.2256C15.6244 21.2842 15.7733 21.0662 15.7042 20.8428C15.6753 20.7492 15.6513 20.0758 15.6509 19.3463L15.6502 18.0199L15.4693 17.9988C15.3189 17.9812 15.2578 18.0271 15.1075 18.2709ZM16.427 19.7374C16.2791 19.8603 15.9519 20.7369 15.9519 21.0102C15.9519 21.2645 16.2146 21.5256 16.7155 21.7691C17.2365 22.0224 17.4038 22.0475 17.5986 21.9016C17.7248 21.807 17.7192 21.7858 17.4126 21.2011C17.2387 20.8694 17.0517 20.4034 16.997 20.1655C16.8694 19.6105 16.7173 19.4962 16.427 19.7374ZM22.9331 20.2816C22.8212 20.6464 22.6378 21.0913 22.5256 21.2703C22.3065 21.6198 22.2744 21.788 22.4021 21.9175C22.5325 22.0499 22.7969 22.0122 23.2439 21.7977C24.0372 21.417 24.1371 21.1702 23.8371 20.3319C23.6512 19.8122 23.5022 19.6184 23.2886 19.6184C23.1549 19.6184 23.112 19.6984 22.9331 20.2816ZM23.791 21.9481C23.3408 22.5097 22.8576 23.0055 22.4389 23.3356C22.1307 23.5786 22.0534 23.6782 22.0534 23.8323C22.0534 24.0931 22.1727 24.1233 22.7303 24.0044C22.9897 23.949 23.3132 23.9032 23.449 23.9027C23.7675 23.9014 24.0101 23.7746 24.1137 23.5553C24.2191 23.3323 24.4314 21.8397 24.3778 21.6981C24.3004 21.4936 24.0803 21.5873 23.791 21.9481ZM15.6394 21.7653C15.568 21.954 15.8077 23.5074 15.9291 23.6436C16.0597 23.79 16.3144 23.8623 17.0918 23.9735C17.8021 24.0752 17.9904 24.0521 18.0174 23.8601C18.0329 23.75 17.9184 23.6152 17.548 23.3076C17.09 22.9271 16.6798 22.5096 16.1756 21.911C15.9535 21.6472 15.7091 21.5809 15.6394 21.7653ZM17.6305 22.0626C17.5264 22.2601 17.5412 22.3349 17.7878 22.857C18.0357 23.3818 18.2857 23.6316 18.5629 23.6316C18.8959 23.6316 19.5992 23.3537 19.7922 23.1459C20.0539 22.8639 19.965 22.7588 19.2993 22.5638C18.992 22.4738 18.5693 22.2947 18.36 22.1656C17.9288 21.8999 17.7311 21.872 17.6305 22.0626ZM21.8187 22.0407C21.5595 22.2443 21.0579 22.4711 20.621 22.5825C20.0954 22.7164 19.9891 22.8137 20.0995 23.0593C20.1982 23.2792 20.7945 23.5609 21.2654 23.6102C21.5814 23.6433 21.6357 23.6287 21.7941 23.468C21.9917 23.2675 22.3886 22.4702 22.3886 22.2737C22.3886 21.93 22.1066 21.8147 21.8187 22.0407ZM18.4352 24.1077C18.3553 24.2664 18.4195 24.3642 18.7571 24.5975C18.9291 24.7163 19.2055 24.9281 19.3714 25.068C19.9109 25.5229 20.0913 25.489 21.0477 24.7522C21.5879 24.3361 21.6711 24.2396 21.6158 24.0936C21.5609 23.9482 18.5087 23.9618 18.4352 24.1077Z" fill="white"/>
</g>
<defs>
<clipPath id="clip0">
<rect width="40" height="54" fill="white"/>
</clipPath>
</defs>
</svg>
