<svg width="18" height="18" viewBox="0 0 18 18" fill="none" xmlns="http://www.w3.org/2000/svg">
<g clip-path="url(#clip0)">
<path d="M17.9669 9.15894L16.0889 4.41894C15.5234 2.99019 14.4712 1.97243 13.2052 1.62668C12.1012 1.32518 10.9672 1.56669 10.0132 2.30844C9.41691 2.77044 8.58366 2.77119 7.98741 2.30844C7.03341 1.56744 5.90091 1.32443 4.79541 1.62668C3.52866 1.97168 2.47716 2.99019 1.91166 4.41894L0.0336581 9.15894C-0.0300919 9.32094 0.00440811 9.54669 0.0831581 9.66969C2.99391 14.2019 5.99391 16.4999 8.99991 16.4999C12.0059 16.4999 15.0059 14.2019 17.9167 9.66969C17.9962 9.54669 18.0307 9.32019 17.9669 9.15894ZM15.0779 7.28469L14.6729 7.52769C14.3174 7.74068 13.9139 7.85544 13.5007 7.86969V6.33444C14.0894 6.50394 14.6317 6.82644 15.0779 7.28469ZM12.3749 6.19794V7.87494H10.8749V6.56094C10.9102 6.54594 10.9469 6.53469 10.9822 6.51819C11.4337 6.31194 11.9054 6.21444 12.3749 6.19794ZM9.74991 6.88644V7.87494H8.24991V6.88568C8.74716 6.96594 9.25266 6.96594 9.74991 6.88644ZM7.01691 6.51894C7.05216 6.53469 7.08891 6.54594 7.12491 6.56169V7.87494H5.62491V6.19794C6.09441 6.21444 6.56616 6.31194 7.01691 6.51894ZM4.49991 6.33444V7.87494H4.37466C3.85116 7.87494 3.33141 7.70169 2.91291 7.38744L2.86266 7.34994C3.31866 6.85719 3.88341 6.51219 4.49991 6.33444ZM1.32516 9.29169L2.15166 8.22294L2.23716 8.28744C2.85066 8.74719 3.60891 8.99994 4.37466 8.99994H13.4189C14.0647 8.99994 14.6984 8.82444 15.2512 8.49219L15.8009 8.16219L16.6747 9.29169C11.9632 13.4849 6.03666 13.4849 1.32516 9.29169Z" fill="#971603"/>
</g>
<defs>
<clipPath id="clip0">
<rect width="18" height="18" fill="white"/>
</clipPath>
</defs>
</svg>
