<svg width="16" height="16" viewBox="0 0 16 16" fill="none" xmlns="http://www.w3.org/2000/svg">
<path fill-rule="evenodd" clip-rule="evenodd" d="M2.3335 6.87821C2.3335 3.8116 4.89608 1.33301 7.99576 1.33301C11.1042 1.33301 13.6668 3.8116 13.6668 6.87821C13.6668 8.42347 13.1048 9.85807 12.1798 11.0741C11.1594 12.4153 9.90163 13.584 8.48583 14.5013C8.16183 14.7133 7.86943 14.7293 7.51376 14.5013C6.08999 13.584 4.83222 12.4153 3.8205 11.0741C2.89482 9.85807 2.3335 8.42347 2.3335 6.87821ZM6.12965 7.05087C6.12965 8.07814 6.96796 8.88614 7.99576 8.88614C9.0243 8.88614 9.8707 8.07814 9.8707 7.05087C9.8707 6.03154 9.0243 5.18423 7.99576 5.18423C6.96796 5.18423 6.12965 6.03154 6.12965 7.05087Z" fill="#E0E0E0"/>
</svg>
