<svg width="18" height="18" viewBox="0 0 18 18" fill="none" xmlns="http://www.w3.org/2000/svg">
<path d="M8.875 2.31249C8.875 2.118 8.71907 1.94622 8.53742 2.01576C8.3866 2.07351 8.2516 2.18141 8.15987 2.33944L6.12434 5.84742C5.98156 6.09349 5.73477 6.26141 5.45347 6.3039L1.63874 6.88006C0.998027 6.97683 0.773282 7.78579 1.27226 8.19918L4.11407 10.5536C4.37714 10.7715 4.50083 11.1153 4.43692 11.4509L3.69355 15.3548C3.57603 15.9719 4.22387 16.4514 4.77974 16.1587L8.37182 14.2673C8.40692 14.2488 8.443 14.2327 8.47967 14.2189C8.68337 14.1426 8.875 13.9767 8.875 13.7592V2.31249Z" fill="#FFBF11"/>
</svg>
