<svg width="18" height="18" viewBox="0 0 18 18" fill="none" xmlns="http://www.w3.org/2000/svg">
<g clip-path="url(#clip0)">
<path d="M6.26025 4.78119C6.26025 4.9877 6.03677 5.3111 5.88742 5.46304C5.68144 5.66902 5.68144 6.00276 5.88742 6.20874C6.0934 6.41472 6.42714 6.41472 6.63312 6.20874C6.70315 6.1392 7.31498 5.50632 7.31498 4.78122C7.31498 4.05613 6.70319 3.42321 6.63467 3.35522C6.48378 3.20176 6.26029 2.87836 6.26029 2.67185C6.26029 2.46534 6.48378 2.14194 6.63467 1.98848C6.8391 1.7825 6.83861 1.44982 6.63312 1.24433C6.42714 1.03835 6.0934 1.03835 5.88742 1.24433C5.81739 1.31387 5.20557 1.94675 5.20557 2.67185C5.20557 3.39695 5.81736 4.02986 5.88588 4.09786C6.03677 4.25128 6.26025 4.57468 6.26025 4.78119Z" fill="#E0E0E0"/>
<path d="M9.42432 3.7265C9.42432 3.93301 9.20083 4.25641 9.05149 4.40836C8.84551 4.61434 8.84551 4.94808 9.05149 5.15406C9.25747 5.36004 9.59121 5.36004 9.79719 5.15406C9.86723 5.08452 10.4791 4.45163 10.4791 3.72654C10.4791 3.00144 9.86726 2.36852 9.79874 2.30053C9.64785 2.14707 9.42436 1.82367 9.42436 1.61716C9.42436 1.41065 9.64785 1.05209 9.79874 0.898638C10.0032 0.692657 10.0027 0.359974 9.79719 0.154485C9.59121 -0.0514951 9.25747 -0.0514951 9.05149 0.154485C8.98146 0.224024 8.36963 0.892063 8.36963 1.61716C8.36963 2.34226 8.98142 2.97518 9.04994 3.04317C9.20083 3.19659 9.42432 3.51999 9.42432 3.7265Z" fill="#E0E0E0"/>
<path d="M6.26075 12.6912H7.31494V11.6427C7.29487 11.5062 7.07395 11.1751 6.7876 10.8352C6.49921 11.1777 6.27723 11.5109 6.26025 11.6458L6.26075 12.6912Z" fill="#E0E0E0"/>
<path d="M12.6072 14.751C15.572 14.4407 17.0738 12.5346 17.0119 10.7425C16.966 9.41435 16.0844 8.48633 14.868 8.48633C14.5665 8.48633 14.2647 8.54156 13.9802 8.63009C13.9915 8.47934 14.0033 8.3551 14.0162 8.31794C14.1671 8.16704 14.2124 7.94046 14.1306 7.7432C14.0492 7.54597 13.8566 7.41772 13.6434 7.41772H7.31527V9.84048C7.72048 10.2686 8.36995 11.0465 8.36995 11.6365V13.2185C8.36995 13.51 8.13409 13.7458 7.84261 13.7458H5.73323C5.44175 13.7458 5.20589 13.51 5.20589 13.2185V11.6365C5.20589 11.0465 5.85537 10.2685 6.26058 9.84048V7.41776H2.04183C1.82864 7.41776 1.61851 7.52386 1.53663 7.72056C1.45528 7.91779 1.48256 8.12173 1.63345 8.27262C1.70605 8.41887 1.73541 9.02915 1.7591 9.5194C1.87441 11.9182 2.1139 16.9451 7.84359 16.9451C10.3018 16.9451 11.7454 15.9893 12.6072 14.751ZM15.9577 10.779C15.9966 11.9059 15.1448 13.1657 13.2249 13.5973C13.7519 12.2904 13.8633 10.8595 13.9167 9.80213C14.1733 9.64565 14.5333 9.54102 14.868 9.54102C15.641 9.54106 15.9381 10.2079 15.9577 10.779Z" fill="#E0E0E0"/>
<path d="M1.51416 18H14.1704C14.4619 18 14.6978 17.7641 14.6978 17.4727C14.6978 17.1812 14.4619 16.9453 14.1704 16.9453H1.51416C1.22268 16.9453 0.986816 17.1812 0.986816 17.4727C0.986816 17.7641 1.22268 18 1.51416 18Z" fill="#E0E0E0"/>
</g>
<defs>
<clipPath id="clip0">
<rect width="18" height="18" fill="white"/>
</clipPath>
</defs>
</svg>
