<svg width="18" height="18" viewBox="0 0 18 18" fill="none" xmlns="http://www.w3.org/2000/svg">
<path fill-rule="evenodd" clip-rule="evenodd" d="M5.28769 3.03769C6.27226 2.05312 7.60761 1.5 9 1.5C10.3924 1.5 11.7277 2.05312 12.7123 3.03769C13.6969 4.02226 14.25 5.35761 14.25 6.75C14.25 8.14239 13.6969 9.47775 12.7123 10.4623C11.7277 11.4469 10.3924 12 9 12C7.60761 12 6.27226 11.4469 5.28769 10.4623C4.30312 9.47775 3.75 8.14239 3.75 6.75C3.75 5.35761 4.30312 4.02226 5.28769 3.03769ZM9 10.5C9.99456 10.5 10.9484 10.1049 11.6517 9.40165C12.3549 8.69839 12.75 7.74456 12.75 6.75C12.75 5.75544 12.3549 4.80161 11.6517 4.09835C10.9484 3.39509 9.99456 3 9 3C8.00544 3 7.05161 3.39509 6.34835 4.09835C5.64509 4.80161 5.25 5.75544 5.25 6.75C5.25 7.74456 5.64509 8.69839 6.34835 9.40165C7.05161 10.1049 8.00544 10.5 9 10.5Z" fill="#212121"/>
<path fill-rule="evenodd" clip-rule="evenodd" d="M8.99934 13.5C7.76341 13.4989 6.54754 13.8125 5.46627 14.4112L5.46556 14.4115C4.40546 14.997 3.51795 15.8509 2.89205 16.8876C2.67797 17.2422 2.21696 17.3562 1.86236 17.1421C1.50776 16.928 1.39385 16.467 1.60793 16.1124C2.3697 14.8506 3.44986 13.8113 4.74006 13.0987C6.0439 12.3769 7.51001 11.9988 9.00031 12C10.4943 12.0001 11.9636 12.3784 13.261 13.0992C14.5589 13.8197 15.6401 14.8591 16.3931 16.1141C16.6062 16.4693 16.491 16.93 16.1359 17.1431C15.7807 17.3562 15.32 17.2411 15.1069 16.8859C14.4919 15.8609 13.605 15.0058 12.533 14.4108L12.5327 14.4106C11.4602 13.8146 10.2418 13.5 8.99999 13.5L8.99934 13.5ZM9.00031 12C9.00042 12 9.00053 12 9.00064 12L8.99999 12.75V12C9.0001 12 9.00021 12 9.00031 12Z" fill="#212121"/>
</svg>
