<svg width="18" height="18" viewBox="0 0 18 18" fill="none" xmlns="http://www.w3.org/2000/svg">
<g clip-path="url(#clip0)">
<path d="M9.95466 6.73343C9.76818 6.65193 9.54704 6.68452 9.39382 6.81938C9.22352 6.9693 9.1684 7.22026 9.26068 7.42758C9.34432 7.61556 9.53553 7.74071 9.74148 7.74071C10.0036 7.74071 10.2317 7.53893 10.2638 7.27889C10.2918 7.05214 10.1645 6.8251 9.95466 6.73343Z" fill="#971603"/>
<path d="M7.14117 7.39159C7.21412 7.59838 7.41715 7.74076 7.63622 7.74076C7.88479 7.74076 8.10295 7.56014 8.15231 7.31729C8.1962 7.10127 8.0946 6.87645 7.90665 6.76312C7.71839 6.64959 7.47255 6.66875 7.3026 6.80751C7.1317 6.94704 7.0682 7.1846 7.14117 7.39159Z" fill="#971603"/>
<path d="M5.53156 7.74052C5.77986 7.74052 5.99802 7.55966 6.04731 7.31705C6.09117 7.10117 5.98956 6.87617 5.80165 6.76289C5.6131 6.64918 5.36789 6.66872 5.19759 6.80727C5.02652 6.94645 4.96329 7.18467 5.0362 7.39139C5.10921 7.59843 5.31239 7.74052 5.53156 7.74052Z" fill="#971603"/>
<path d="M9.95449 4.6283C9.76844 4.54628 9.54667 4.57992 9.39374 4.71423C9.22298 4.86414 9.16878 5.11482 9.26052 5.32228C9.34371 5.51036 9.53562 5.63555 9.74132 5.63555C10.0034 5.63555 10.2316 5.43388 10.2637 5.17373C10.2917 4.94642 10.1642 4.72072 9.95449 4.6283Z" fill="#971603"/>
<path d="M7.6362 5.63554C7.88481 5.63554 8.10293 5.45496 8.15229 5.21207C8.19618 4.99609 8.09458 4.77123 7.90663 4.65791C7.71833 4.54438 7.47256 4.5635 7.30258 4.70229C7.13172 4.84182 7.06818 5.07942 7.14119 5.28642C7.2141 5.49321 7.41713 5.63554 7.6362 5.63554Z" fill="#971603"/>
<path d="M5.53157 5.6365C5.77993 5.6365 5.99802 5.45561 6.04731 5.21303C6.09117 4.99719 5.98956 4.77215 5.80165 4.65886C5.61339 4.54536 5.36751 4.56448 5.1976 4.70325C5.02674 4.84278 4.9632 5.08037 5.03621 5.28737C5.10919 5.49437 5.31233 5.6365 5.53157 5.6365Z" fill="#971603"/>
<path d="M1.19122 13.2068C1.18785 13.2068 1.18452 13.2065 1.18115 13.2065V13.6051C1.18115 15.2012 2.47504 16.4951 4.07114 16.4951H4.79708C4.79448 16.5163 4.79277 16.5376 4.79277 16.5594V17.4553C4.79277 17.746 5.02839 17.9816 5.31904 17.9816C5.60968 17.9816 5.8453 17.746 5.8453 17.4553V16.5594C5.8453 16.5376 5.84359 16.5163 5.84099 16.4951H12.1586C12.156 16.5163 12.1543 16.5376 12.1543 16.5594V17.4553C12.1543 17.746 12.3899 17.9816 12.6805 17.9816C12.9712 17.9816 13.2068 17.746 13.2068 17.4553V16.5594C13.2068 16.5376 13.205 16.5163 13.2025 16.4951H13.9284C15.5245 16.4951 16.8184 15.2012 16.8184 13.6051V13.2065C16.815 13.2065 16.8117 13.2068 16.8083 13.2068H1.19122Z" fill="#971603"/>
<path d="M16.8086 9.77139H2.12848V2.32993C2.12848 1.63564 2.69334 1.07081 3.38763 1.07081H4.5416C4.73653 1.07081 4.92251 1.15449 5.0518 1.30037L5.76784 2.10813C5.7717 2.11248 5.77598 2.11627 5.77995 2.12048V2.5042H5.42914C5.13846 2.5042 4.90287 2.73979 4.90287 3.03047C4.90287 3.17579 4.96177 3.30736 5.05699 3.40261C5.15221 3.49786 5.28378 3.55674 5.42914 3.55674H9.783C10.0737 3.55674 10.3093 3.32114 10.3093 3.03047C10.3093 2.73983 10.0737 2.5042 9.783 2.5042H9.43215V1.8444C9.43215 0.835888 8.61458 0.0183105 7.60607 0.0183105C6.96006 0.0183105 6.39284 0.354071 6.0682 0.860272L5.83945 0.602224C5.5105 0.231134 5.03745 0.0183105 4.54157 0.0183105H3.38763C2.11297 0.0183105 1.07594 1.05531 1.07594 2.32997V9.77707C0.472134 9.83517 0 10.3438 0 10.9629C0 11.6209 0.533427 12.1543 1.19144 12.1543H16.8085C17.4665 12.1543 18 11.6209 18 10.9629C18 10.3048 17.4666 9.77139 16.8086 9.77139Z" fill="#971603"/>
</g>
<defs>
<clipPath id="clip0">
<rect width="18" height="18" fill="white"/>
</clipPath>
</defs>
</svg>
