<svg width="18" height="18" viewBox="0 0 18 18" fill="none" xmlns="http://www.w3.org/2000/svg">
<path d="M15.7555 2.87651H14.6659V0.653753C14.6546 0.297509 14.3684 0.0113215 14.0121 0H3.68283C2.52744 0 1.59082 0.93662 1.59082 2.09201V15.908C1.59082 17.0634 2.52744 18 3.68283 18H15.7555C16.1165 18 16.4092 17.7073 16.4092 17.3462V3.53027C16.4092 3.16921 16.1165 2.87651 15.7555 2.87651ZM9.17436 9.82809L7.60535 8.54237C7.39088 8.41311 7.12248 8.41311 6.90801 8.54237L5.339 9.82809V4.18402H9.17436V9.82809ZM13.3584 2.87651H3.68283C3.24955 2.87651 2.89833 2.52529 2.89833 2.09201C2.89833 1.65873 3.24955 1.30751 3.68283 1.30751H13.3584V2.87651Z" fill="#971603"/>
</svg>
