<svg width="18" height="18" viewBox="0 0 18 18" fill="none" xmlns="http://www.w3.org/2000/svg">
<g clip-path="url(#clip0)">
<path d="M6.89062 1.05469C7.18158 1.05469 7.41797 1.29108 7.41797 1.58203V2.63672C7.41797 2.9282 7.65383 3.16406 7.94531 3.16406H8.47266V4.25391H7.41797C7.12649 4.25391 6.89062 4.48977 6.89062 4.78125V5.30859H11.1094V4.78125C11.1094 4.48977 10.8735 4.25391 10.582 4.25391H9.52734V3.16406H10.0547C10.3462 3.16406 10.582 2.9282 10.582 2.63672V1.58203C10.582 1.29108 10.8184 1.05469 11.1094 1.05469C12.0518 1.05469 12.8079 1.38959 13.3733 1.95486C13.5792 2.16084 13.9129 2.16088 14.119 1.95486C14.3249 1.74888 14.3249 1.41514 14.119 1.20916C12.8439 -0.0658124 11.2166 0.0210938 11.1094 0H6.89062C6.59914 0 6.36328 0.235863 6.36328 0.527344C6.36328 0.818824 6.59914 1.05469 6.89062 1.05469Z" fill="#971603"/>
<path d="M9 12.6914C9.58249 12.6914 10.0547 12.2192 10.0547 11.6367C10.0547 11.0542 9.58249 10.582 9 10.582C8.41751 10.582 7.94531 11.0542 7.94531 11.6367C7.94531 12.2192 8.41751 12.6914 9 12.6914Z" fill="#971603"/>
<path d="M10.582 6.36328H7.41797C5.38274 6.36328 3.72656 8.01946 3.72656 10.0547V16.418C3.72656 17.2903 4.43623 18 5.30859 18H12.6914C13.5638 18 14.2734 17.2903 14.2734 16.418V10.0547C14.2734 8.01946 12.6173 6.36328 10.582 6.36328ZM9 13.7461C7.83664 13.7461 6.89062 12.8001 6.89062 11.6367C6.89062 10.4734 7.83664 9.52734 9 9.52734C10.1634 9.52734 11.1094 10.4734 11.1094 11.6367C11.1094 12.8001 10.1634 13.7461 9 13.7461Z" fill="#971603"/>
</g>
<defs>
<clipPath id="clip0">
<rect width="18" height="18" fill="white"/>
</clipPath>
</defs>
</svg>
