<svg width="35" height="12" viewBox="0 0 35 12" fill="none" xmlns="http://www.w3.org/2000/svg">
<path d="M9.52148 6.36475C10.6065 6.36475 26.9594 6.36475 35.0002 6.36474" stroke="#212121" stroke-opacity="0.37" stroke-width="2"/>
<rect x="-0.00739765" y="1.40491" width="5.82959" height="5.8298" transform="matrix(0.708011 0.706202 -0.715409 0.698706 6.60449 0.928514)" stroke="#212121" stroke-opacity="0.37" stroke-width="2"/>
</svg>
