<svg width="18" height="18" viewBox="0 0 18 18" fill="none" xmlns="http://www.w3.org/2000/svg">
<path d="M2.66235 16.3694C2.66235 16.7062 2.93629 16.9801 3.27305 16.9801H4.82041C5.1571 16.9801 5.43108 16.7062 5.43108 16.3694V15.0016H2.66235V16.3694Z" fill="#E0E0E0"/>
<path d="M1.43563 13.6997C1.43563 13.9234 1.5289 14.1251 1.67817 14.269C1.82041 14.4061 2.01349 14.4908 2.22664 14.4908H5.86679C6.07991 14.4908 6.27295 14.4061 6.41523 14.2691C6.56461 14.1251 6.65788 13.9235 6.65788 13.6997L7.67242 4.93286L1.05847 10.4405L1.43563 13.6997Z" fill="#E0E0E0"/>
<path d="M7.30238 0.503784H0.79098C0.354129 0.503784 0 0.857983 0 1.29483L0.916629 9.215L7.84448 3.44608L8.09343 1.29483C8.09343 0.857983 7.73933 0.503784 7.30238 0.503784Z" fill="#E0E0E0"/>
<path d="M15.2396 7.56975C15.2396 7.14489 14.8939 6.79919 14.469 6.79919H12.5674C12.1426 6.79919 11.7969 7.14489 11.7969 7.56975V9.31154H15.2396V7.56975Z" fill="#E0E0E0"/>
<path d="M16.2708 9.8469C16.1809 9.83456 16.0893 9.82764 15.996 9.82764H15.7556H11.2806H11.0402C10.947 9.82764 10.8554 9.83456 10.7654 9.8469C9.78879 9.98088 9.03638 10.8181 9.03638 11.8315V15.4924C9.03638 16.5991 9.93353 17.4963 11.0402 17.4963H15.9961C17.1028 17.4963 18 16.5991 18 15.4924V11.8315C18 10.8181 17.2474 9.98095 16.2708 9.8469ZM13.5181 15.2441C12.6444 15.2441 11.9361 14.5358 11.9361 13.662C11.9361 12.7882 12.6444 12.0799 13.5181 12.0799C14.392 12.0799 15.1003 12.7882 15.1003 13.662C15.1003 14.5358 14.3919 15.2441 13.5181 15.2441Z" fill="#E0E0E0"/>
</svg>
