<svg width="16" height="16" viewBox="0 0 16 16" fill="none" xmlns="http://www.w3.org/2000/svg">
<path fill-rule="evenodd" clip-rule="evenodd" d="M2.3335 7.99967C2.3335 4.87006 4.87055 2.33301 8.00016 2.33301C11.1298 2.33301 13.6668 4.87006 13.6668 7.99967C13.6668 11.1293 11.1298 13.6663 8.00016 13.6663C4.87055 13.6663 2.3335 11.1293 2.3335 7.99967ZM8.50016 4.66634C8.50016 4.3902 8.2763 4.16634 8.00016 4.16634C7.72403 4.16634 7.50016 4.3902 7.50016 4.66634V7.99967C7.50016 8.17207 7.58896 8.33227 7.73516 8.42367L9.73516 9.67367C9.96936 9.82001 10.2778 9.74887 10.4242 9.51467C10.5705 9.28047 10.4994 8.97201 10.2652 8.82567L8.50016 7.72254V4.66634Z" fill="#E0E0E0"/>
</svg>
