<svg width="32" height="24" viewBox="0 0 32 24" fill="none" xmlns="http://www.w3.org/2000/svg">
<path fill-rule="evenodd" clip-rule="evenodd" d="M4 0C1.79087 0 0 1.79087 0 4V20C0 22.2092 1.79085 24 4 24H28C30.2092 24 32 22.2092 32 20V4C32 1.79087 30.2092 0 28 0H4ZM2.66667 4C2.66667 3.26363 3.26363 2.66667 4 2.66667H28C28.7364 2.66667 29.3333 3.26361 29.3333 4V20C29.3333 20.7364 28.7364 21.3333 28 21.3333H4C3.26363 21.3333 2.66667 20.7364 2.66667 20V4ZM27.5075 7.03481C28.0789 6.57047 28.1659 5.73072 27.7015 5.15921C27.2371 4.58769 26.3973 4.50083 25.8259 4.96519L16.8961 12.2207C16.3939 12.6287 15.6711 12.6172 15.182 12.1933L6.87324 4.99241C6.31677 4.51013 5.47469 4.57028 4.99241 5.12676C4.51013 5.68323 4.57028 6.52531 5.12676 7.00759L13.4356 14.2085C14.9027 15.48 17.0709 15.5145 18.5777 14.2903L27.5075 7.03481Z" fill="#971603"/>
</svg>
