<svg width="20" height="20" viewBox="0 0 20 20" fill="none" xmlns="http://www.w3.org/2000/svg">
<g clip-path="url(#clip0)">
<path d="M3.93415 10.7341C3.42331 11.7382 4.00331 12.2182 5.32665 13.0382C6.45165 13.7332 8.00581 13.9874 9.00415 14.0891L8.16748 14.8941C6.98165 16.0232 5.85665 17.1166 5.06998 17.8741C3.92498 18.9716 5.76831 20.7324 6.91248 19.6582L10.01 16.6707C11.1958 17.8116 12.3325 18.9049 13.1075 19.6624C14.2525 20.7407 16.095 18.9949 14.9625 17.8782L11.865 14.8982L11.0166 14.0932C12.0275 13.9916 13.5583 13.7224 14.67 13.0424L14.6691 13.0416C15.9925 12.2174 16.5725 11.7382 16.0691 10.7341C15.765 10.1641 14.945 9.68741 13.8533 10.5116C13.8533 10.5116 12.3791 11.6407 10.0016 11.6407C7.62331 11.6407 6.14998 10.5116 6.14998 10.5116C5.05831 9.68324 4.23498 10.1641 3.93415 10.7341Z" fill="#212121"/>
<path d="M9.99923 10.1183C12.8976 10.1183 15.2642 7.85333 15.2642 5.065C15.2642 2.265 12.8976 0 9.99923 0C7.10006 0 4.7334 2.265 4.7334 5.065C4.7334 7.85333 7.10006 10.1183 9.99923 10.1183ZM9.99923 2.56583C11.4234 2.56583 12.5851 3.68333 12.5851 5.065C12.5851 6.435 11.4234 7.5525 9.99923 7.5525C8.57506 7.5525 7.4134 6.435 7.4134 5.065C7.41256 3.6825 8.57423 2.56583 9.99923 2.56583Z" fill="#212121"/>
</g>
<defs>
<clipPath id="clip0">
<rect width="20" height="20" fill="white"/>
</clipPath>
</defs>
</svg>
