<svg width="20" height="20" viewBox="0 0 20 20" fill="none" xmlns="http://www.w3.org/2000/svg">
<path d="M7.5 12.5L12.5 7.5" stroke="#212121" stroke-width="2" stroke-linecap="round" stroke-linejoin="round"/>
<path d="M11.2268 15.8334C10.7735 16.3405 10.2215 16.7498 9.60457 17.0362C8.98766 17.3226 8.31879 17.4802 7.6389 17.4992C6.95901 17.5182 6.28238 17.3984 5.65041 17.1469C5.01845 16.8954 4.44444 16.5177 3.96349 16.0367C3.48254 15.5558 3.10478 14.9817 2.85331 14.3498C2.60184 13.7178 2.48195 13.0412 2.50098 12.3613C2.52001 11.6814 2.67755 11.0125 2.96397 10.3956C3.25039 9.77872 3.65967 9.22673 4.16676 8.77344" stroke="#212121" stroke-width="2" stroke-linecap="round" stroke-linejoin="round"/>
<path d="M8.77344 4.16676C9.22673 3.65967 9.77872 3.25039 10.3956 2.96397C11.0125 2.67755 11.6814 2.52001 12.3613 2.50098C13.0412 2.48195 13.7178 2.60184 14.3498 2.85331C14.9817 3.10478 15.5558 3.48254 16.0367 3.96349C16.5177 4.44444 16.8954 5.01845 17.1469 5.65041C17.3984 6.28238 17.5182 6.95901 17.4992 7.6389C17.4802 8.31879 17.3226 8.98765 17.0362 9.60457C16.7498 10.2215 16.3405 10.7735 15.8334 11.2268" stroke="#212121" stroke-width="2" stroke-linecap="round" stroke-linejoin="round"/>
</svg>
