<svg width="18" height="18" viewBox="0 0 18 18" fill="none" xmlns="http://www.w3.org/2000/svg">
<path d="M3.05746 12.5276L4.87482 9.741H4.14272V8.05207L5.48132 5.58081H5.22798V3.88168L6.56993 1.50752L5.6418 0H4.37276L1.99309 4.21024V5.21107H2.52639L0.996529 8.03538V9.03113H2.04342L0 12.1644V13.1834H3.05746V12.5276Z" fill="#971603"/>
<path d="M14.2941 15.3364V14.2629H12.1765V14.9176C11.6455 14.8552 11.1097 14.8234 10.5715 14.8234H10.0588V13.1937L13.8837 13.204V12.8423L11.1705 8.68203H12.7984V8.32027L10.7409 4.5218H11.7131V4.16004L9.36762 0.0102539H8.63238L6.2868 4.16011V4.52187H7.25901L5.20151 8.32034V8.6821H6.82941L4.11621 12.8423V13.2041L7.94118 13.1937V14.8234H7.42853C6.89033 14.8234 6.35449 14.8553 5.82353 14.9176V14.2629H3.70588V15.3364C2.49731 15.6761 1.33525 16.1812 0.253341 16.8423L0 16.9971V17.9999H18V16.9971L17.7466 16.8423C16.6648 16.1811 15.5027 15.676 14.2941 15.3364Z" fill="#971603"/>
<path d="M15.9564 9.03113H17.0033V8.03538L15.4735 5.21107H16.0068V4.21024L13.6271 0H12.3486L11.4526 1.54761L12.7719 3.88168V5.58081H12.5186L13.8572 8.05207V9.741H13.125L14.9424 12.5276V13.1834H17.9999V12.1644L15.9564 9.03113Z" fill="#971603"/>
</svg>
